{
  "$schema" : "http://json-schema.org/draft-04/schema#",
  "type" : "object",
  "properties" : {
    "bankAccountBban" : {
      "$ref" : "#/definitions/BankAccountBban"
    },
    "bankAccountIban" : {
      "$ref" : "#/definitions/BankAccountIban"
    },
    "fraudFields" : {
      "$ref" : "#/definitions/FraudFields"
    },
    "order" : {
      "$ref" : "#/definitions/OrderRiskAssessment"
    },
    "paymentProductId" : {
      "type" : "integer",
      "maximum" : 2147483647
    }
  },
  "additionalProperties" : false,
  "definitions" : {
    "AdditionalOrderInputAirlineData" : {
      "type" : "object",
      "properties" : {
        "airlineData" : {
          "$ref" : "#/definitions/AirlineData"
        }
      },
      "additionalProperties" : false
    },
    "Address" : {
      "type" : "object",
      "properties" : {
        "additionalInfo" : {
          "type" : "string"
        },
        "city" : {
          "type" : "string"
        },
        "countryCode" : {
          "type" : "string"
        },
        "houseNumber" : {
          "type" : "string"
        },
        "state" : {
          "type" : "string"
        },
        "stateCode" : {
          "type" : "string"
        },
        "street" : {
          "type" : "string"
        },
        "zip" : {
          "type" : "string"
        }
      },
      "additionalProperties" : false
    },
    "AddressPersonal" : {
      "type" : "object",
      "properties" : {
        "additionalInfo" : {
          "type" : "string"
        },
        "city" : {
          "type" : "string"
        },
        "countryCode" : {
          "type" : "string"
        },
        "houseNumber" : {
          "type" : "string"
        },
        "name" : {
          "$ref" : "#/definitions/PersonalName"
        },
        "state" : {
          "type" : "string"
        },
        "stateCode" : {
          "type" : "string"
        },
        "street" : {
          "type" : "string"
        },
        "zip" : {
          "type" : "string"
        }
      },
      "additionalProperties" : false
    },
    "AirlineData" : {
      "type" : "object",
      "properties" : {
        "agentNumericCode" : {
          "type" : "string"
        },
        "code" : {
          "type" : "string"
        },
        "flightDate" : {
          "type" : "string"
        },
        "flightLegs" : {
          "type" : "array",
          "items" : {
            "$ref" : "#/definitions/AirlineFlightLeg"
          },
          "minItems" : 0,
          "uniqueItems" : false
        },
        "invoiceNumber" : {
          "type" : "string"
        },
        "isETicket" : {
          "type" : "boolean"
        },
        "isRegisteredCustomer" : {
          "type" : "boolean"
        },
        "isRestrictedTicket" : {
          "type" : "boolean"
        },
        "isThirdParty" : {
          "type" : "boolean"
        },
        "issueDate" : {
          "type" : "string"
        },
        "merchantCustomerId" : {
          "type" : "string"
        },
        "name" : {
          "type" : "string"
        },
        "passengerName" : {
          "type" : "string"
        },
        "placeOfIssue" : {
          "type" : "string"
        },
        "pnr" : {
          "type" : "string"
        },
        "pointOfSale" : {
          "type" : "string"
        },
        "posCityCode" : {
          "type" : "string"
        },
        "ticketDeliveryMethod" : {
          "type" : "string"
        },
        "ticketNumber" : {
          "type" : "string"
        }
      },
      "required" : [ "code", "name" ],
      "additionalProperties" : false
    },
    "AirlineFlightLeg" : {
      "type" : "object",
      "properties" : {
        "airlineClass" : {
          "type" : "string"
        },
        "arrivalAirport" : {
          "type" : "string"
        },
        "carrierCode" : {
          "type" : "string"
        },
        "date" : {
          "type" : "string"
        },
        "departureTime" : {
          "type" : "string"
        },
        "fare" : {
          "type" : "string"
        },
        "fareBasis" : {
          "type" : "string"
        },
        "flightNumber" : {
          "type" : "string"
        },
        "number" : {
          "type" : "integer",
          "maximum" : 2147483647
        },
        "originAirport" : {
          "type" : "string"
        },
        "stopoverCode" : {
          "type" : "string"
        }
      },
      "required" : [ "airlineClass", "arrivalAirport", "carrierCode", "date", "number", "originAirport" ],
      "additionalProperties" : false
    },
    "AmountOfMoney" : {
      "type" : "object",
      "properties" : {
        "amount" : {
          "type" : "integer",
          "maximum" : 9223372036854775807
        },
        "currencyCode" : {
          "type" : "string"
        }
      },
      "required" : [ "amount", "currencyCode" ],
      "additionalProperties" : false
    },
    "BankAccountBban" : {
      "type" : "object",
      "properties" : {
        "accountHolderName" : {
          "type" : "string"
        },
        "accountNumber" : {
          "type" : "string"
        },
        "bankCode" : {
          "type" : "string"
        },
        "bankName" : {
          "type" : "string"
        },
        "branchCode" : {
          "type" : "string"
        },
        "checkDigit" : {
          "type" : "string"
        },
        "countryCode" : {
          "type" : "string"
        }
      },
      "additionalProperties" : false
    },
    "BankAccountIban" : {
      "type" : "object",
      "properties" : {
        "accountHolderName" : {
          "type" : "string"
        },
        "iban" : {
          "type" : "string"
        }
      },
      "additionalProperties" : false
    },
    "CustomerRiskAssessment" : {
      "type" : "object",
      "properties" : {
        "billingAddress" : {
          "$ref" : "#/definitions/Address"
        },
        "locale" : {
          "type" : "string"
        },
        "personalInformation" : {
          "$ref" : "#/definitions/PersonalInformationRiskAssessment"
        },
        "shippingAddress" : {
          "$ref" : "#/definitions/AddressPersonal"
        }
      },
      "additionalProperties" : false
    },
    "FraudFields" : {
      "type" : "object",
      "properties" : {
        "customerIpAddress" : {
          "type" : "string"
        },
        "defaultFormFill" : {
          "type" : "string"
        },
        "giftCardType" : {
          "type" : "string"
        },
        "giftMessage" : {
          "type" : "string"
        },
        "hasForgottenPwd" : {
          "type" : "boolean"
        },
        "hasPassword" : {
          "type" : "boolean"
        },
        "isPreviousCustomer" : {
          "type" : "boolean"
        },
        "orderTimezone" : {
          "type" : "string"
        },
        "shipComments" : {
          "type" : "string"
        },
        "shipmentTrackingNumber" : {
          "type" : "string"
        },
        "userData" : {
          "type" : "array",
          "items" : {
            "type" : "string"
          },
          "minItems" : 0,
          "uniqueItems" : false
        },
        "website" : {
          "type" : "string"
        }
      },
      "additionalProperties" : false
    },
    "OrderRiskAssessment" : {
      "type" : "object",
      "properties" : {
        "additionalInput" : {
          "$ref" : "#/definitions/AdditionalOrderInputAirlineData"
        },
        "amountOfMoney" : {
          "$ref" : "#/definitions/AmountOfMoney"
        },
        "customer" : {
          "$ref" : "#/definitions/CustomerRiskAssessment"
        }
      },
      "required" : [ "amountOfMoney" ],
      "additionalProperties" : false
    },
    "PersonalInformationRiskAssessment" : {
      "type" : "object",
      "properties" : {
        "name" : {
          "$ref" : "#/definitions/PersonalNameRiskAssessment"
        }
      },
      "additionalProperties" : false
    },
    "PersonalName" : {
      "type" : "object",
      "properties" : {
        "firstName" : {
          "type" : "string"
        },
        "surname" : {
          "type" : "string"
        },
        "surnamePrefix" : {
          "type" : "string"
        },
        "title" : {
          "type" : "string"
        }
      },
      "additionalProperties" : false
    },
    "PersonalNameRiskAssessment" : {
      "type" : "object",
      "properties" : {
        "firstName" : {
          "type" : "string"
        },
        "surname" : {
          "type" : "string"
        },
        "surnamePrefix" : {
          "type" : "string"
        }
      },
      "additionalProperties" : false
    }
  }
}
